…
Double check to see if the duplicated rows are removed. We can see here
that they are all cleared.
&nbsp;
### 2.2 Cleaning and renaming columns in each data frame

We will use `clean_names()` function to make sure that column names are
unique and only contain numbers, letters, “\_“, and nothing else. Also,
we will change all names to lowercase for naming consistency and ease of
use.

``` r
clean_names(activity)
```

    ## # A tibble: 940 × 15
    ##            id activity_date total_steps total_distance tracker_distance
    ##         <dbl> <chr>               <dbl>          <dbl>            <dbl>
    ##  1 1503960366 04/12/2016          13162           8.5              8.5 
    ##  2 1503960366 4/13/2016           10735           6.97             6.97
    ##  3 1503960366 4/14/2016           10460           6.74             6.74
    ##  4 1503960366 4/15/2016            9762           6.28             6.28
    ##  5 1503960366 4/16/2016           12669           8.16             8.16
    ##  6 1503960366 4/17/2016            9705           6.48             6.48
    ##  7 1503960366 4/18/2016           13019           8.59             8.59
    ##  8 1503960366 4/19/2016           15506           9.88             9.88
    ##  9 1503960366 4/20/2016           10544           6.68             6.68
    ## 10 1503960366 4/21/2016            9819           6.34             6.34
    ## # ℹ 930 more rows
    ## # ℹ 10 more variables: logged_activities_distance <dbl>,
    ## #   very_active_distance <dbl>, moderately_active_distance <dbl>,
    ## #   light_active_distance <dbl>, sedentary_active_distance <dbl>,
    ## #   very_active_minutes <dbl>, fairly_active_minutes <dbl>,
    ## #   lightly_active_minutes <dbl>, sedentary_minutes <dbl>, calories <dbl>

``` r
 activity <- rename_with(activity, tolower)

clean_names(sleep)
```

    ## # A tibble: 410 × 5
    ##          id sleep_day total_sleep_records total_minutes_asleep total_time_in_bed
    ##       <dbl> <chr>                   <dbl>                <dbl>             <dbl>
    ##  1   1.50e9 4/12/201…                   1                  327               346
    ##  2   1.50e9 4/13/201…                   2                  384               407
    ##  3   1.50e9 4/15/201…                   1                  412               442
    ##  4   1.50e9 4/16/201…                   2                  340               367
    ##  5   1.50e9 4/17/201…                   1                  700               712
    ##  6   1.50e9 4/19/201…                   1                  304               320
    ##  7   1.50e9 4/20/201…                   1                  360               377
    ##  8   1.50e9 4/21/201…                   1                  325               364
    ##  9   1.50e9 4/23/201…                   1                  361               384
    ## 10   1.50e9 4/24/201…                   1                  430               449
    ## # ℹ 400 more rows

``` r
 sleep <- rename_with(sleep, tolower)

clean_names(h_steps)
```

    ## # A tibble: 22,099 × 3
    ##            id activity_hour         step_total
    ##         <dbl> <chr>                      <dbl>
    ##  1 1503960366 4/12/2016 12:00:00 AM        373
    ##  2 1503960366 4/12/2016 1:00:00 AM         160
    ##  3 1503960366 4/12/2016 2:00:00 AM         151
    ##  4 1503960366 4/12/2016 3:00:00 AM           0
    ##  5 1503960366 4/12/2016 4:00:00 AM           0
    ##  6 1503960366 4/12/2016 5:00:00 AM           0
    ##  7 1503960366 4/12/2016 6:00:00 AM           0
    ##  8 1503960366 4/12/2016 7:00:00 AM           0
    ##  9 1503960366 4/12/2016 8:00:00 AM         250
    ## 10 1503960366 4/12/2016 9:00:00 AM        1864
    ## # ℹ 22,089 more rows
…
